[gd_scene load_steps=4 format=2]

[ext_resource path="res://art/levels/1.webp" type="Texture" id=1]
[ext_resource path="res://art/theme.tres" type="Theme" id=2]
[ext_resource path="res://scenes_and_scripts/player.tscn" type="PackedScene" id=3]

[node name="1" type="StaticBody2D"]

[node name="Sprite" type="Sprite" parent="."]
texture = ExtResource( 1 )
centered = false

[node name="CollisionPolygon2D" type="CollisionPolygon2D" parent="."]
visible = false
polygon = PoolVector2Array( 0, 0, 0, 720, 960, 720, 960, 664, 732, 664, 732, 554, 676, 554, 676, 642, 76, 642, 76, 52, 960, 52, 960, 0 )

[node name="Message" type="Control" parent="."]
margin_left = 88.0
margin_top = 102.02
margin_right = 88.0
margin_bottom = 102.02
theme = ExtResource( 2 )
__meta__ = {
"_edit_use_anchors_": false
}

[node name="Label" type="Label" parent="Message"]
margin_right = 40.0
margin_bottom = 14.0
text = "Hello, young ninja.  You cannot see"
__meta__ = {
"_edit_use_anchors_": false
}

[node name="Label2" type="Label" parent="Message"]
margin_top = 49.72
margin_right = 40.0
margin_bottom = 110.72
text = "me at the moment, but I will help"

[node name="Label3" type="Label" parent="Message"]
margin_top = 99.44
margin_right = 704.0
margin_bottom = 160.44
text = "train and guide you through your"
__meta__ = {
"_edit_use_anchors_": false
}

[node name="Label4" type="Label" parent="Message"]
margin_top = 149.16
margin_right = 40.0
margin_bottom = 210.16
text = "journey here."

[node name="Player" parent="." instance=ExtResource( 3 )]
position = Vector2( 107, 610 )
